module pointersErrors

go 1.17

require (
	github.com/kisielk/errcheck v1.6.0 // indirect
	golang.org/x/mod v0.2.0 // indirect
	golang.org/x/tools v0.0.0-20200619180055-7c47624df98f // indirect
	golang.org/x/xerrors v0.0.0-20191204190536-9bdfabe68543 // indirect
)
